EESchema Schematic File Version 2
LIBS:power
LIBS:device
LIBS:switches
LIBS:relays
LIBS:motors
LIBS:transistors
LIBS:conn
LIBS:linear
LIBS:regul
LIBS:74xx
LIBS:cmos4000
LIBS:adc-dac
LIBS:memory
LIBS:xilinx
LIBS:microcontrollers
LIBS:dsp
LIBS:microchip
LIBS:analog_switches
LIBS:motorola
LIBS:texas
LIBS:intel
LIBS:audio
LIBS:interface
LIBS:digital-audio
LIBS:philips
LIBS:display
LIBS:cypress
LIBS:siliconi
LIBS:opto
LIBS:atmel
LIBS:contrib
LIBS:valves
EELAYER 25 0
EELAYER END
$Descr A4 11693 8268
encoding utf-8
Sheet 1 1
Title ""
Date ""
Rev ""
Comp ""
Comment1 ""
Comment2 ""
Comment3 ""
Comment4 ""
$EndDescr
$Comp
L +3.3V #PWR?
U 1 1 59C64D86
P 3500 3200
F 0 "#PWR?" H 3500 3050 50  0001 C CNN
F 1 "+3.3V" H 3500 3340 50  0000 C CNN
F 2 "" H 3500 3200 50  0001 C CNN
F 3 "" H 3500 3200 50  0001 C CNN
	1    3500 3200
	1    0    0    -1  
$EndComp
$Comp
L C C_B
U 1 1 59C64D9A
P 2850 4150
F 0 "C_B" H 2875 4250 50  0000 L CNN
F 1 "200nF" H 2875 4050 50  0000 L CNN
F 2 "" H 2888 4000 50  0001 C CNN
F 3 "" H 2850 4150 50  0001 C CNN
	1    2850 4150
	1    0    0    -1  
$EndComp
$Comp
L C C_A
U 1 1 59C64DD1
P 2550 4500
F 0 "C_A" H 2575 4600 50  0000 L CNN
F 1 "200nF" H 2575 4400 50  0000 L CNN
F 2 "" H 2588 4350 50  0001 C CNN
F 3 "" H 2550 4500 50  0001 C CNN
	1    2550 4500
	1    0    0    -1  
$EndComp
$Comp
L LED BACKFLOW
U 1 1 59C64E20
P 2700 3300
F 0 "BACKFLOW" H 2700 3400 50  0000 C CNN
F 1 "LED" V 2700 3200 50  0000 C CNN
F 2 "" H 2700 3300 50  0001 C CNN
F 3 "" H 2700 3300 50  0001 C CNN
	1    2700 3300
	-1   0    0    1   
$EndComp
$Comp
L LED OVERFLOW
U 1 1 59C64E87
P 2700 3600
F 0 "OVERFLOW" H 2700 3700 50  0000 C CNN
F 1 "LED" H 2700 3500 50  0000 C CNN
F 2 "" H 2700 3600 50  0001 C CNN
F 3 "" H 2700 3600 50  0001 C CNN
	1    2700 3600
	-1   0    0    1   
$EndComp
$Comp
L GNDD #PWR?
U 1 1 59C64EC6
P 2350 4900
F 0 "#PWR?" H 2350 4650 50  0001 C CNN
F 1 "GNDD" H 2350 4775 50  0000 C CNN
F 2 "" H 2350 4900 50  0001 C CNN
F 3 "" H 2350 4900 50  0001 C CNN
	1    2350 4900
	1    0    0    -1  
$EndComp
$Comp
L Rotary_Encoder SW
U 1 1 59C64FE3
P 4300 4450
F 0 "SW" H 4300 4710 50  0000 C CNN
F 1 "Rotary_Encoder" H 4300 4190 50  0000 C CNN
F 2 "" H 4200 4610 50  0001 C CNN
F 3 "" H 4300 4710 50  0001 C CNN
	1    4300 4450
	1    0    0    -1  
$EndComp
$Comp
L R R_A
U 1 1 59C6504E
P 3850 4150
F 0 "R_A" V 3930 4150 50  0000 C CNN
F 1 "4.7k" V 3850 4150 50  0000 C CNN
F 2 "" V 3780 4150 50  0001 C CNN
F 3 "" H 3850 4150 50  0001 C CNN
	1    3850 4150
	1    0    0    -1  
$EndComp
$Comp
L R R_B
U 1 1 59C65111
P 3500 3700
F 0 "R_B" V 3580 3700 50  0000 C CNN
F 1 "4.7k" V 3500 3700 50  0000 C CNN
F 2 "" V 3430 3700 50  0001 C CNN
F 3 "" H 3500 3700 50  0001 C CNN
	1    3500 3700
	1    0    0    -1  
$EndComp
Wire Wire Line
	3500 3850 3500 4550
Text GLabel 2300 4350 0    60   Input ~ 0
PIN8_IN
Text GLabel 2300 3850 0    60   Input ~ 0
PIN9_IN
Text GLabel 2300 3600 0    60   Input ~ 0
PIN10_OUT
Text GLabel 2300 3300 0    60   Input ~ 0
PIN11_OUT
Wire Wire Line
	2300 3300 2550 3300
Wire Wire Line
	2300 3600 2550 3600
Wire Wire Line
	2300 3850 3500 3850
Wire Wire Line
	2300 4350 2550 4350
Connection ~ 2850 4900
Wire Wire Line
	2550 4900 2550 4650
Connection ~ 2550 4900
Wire Wire Line
	2850 3600 3200 3600
Wire Wire Line
	3200 3600 3200 4900
Connection ~ 3200 4900
Wire Wire Line
	2850 3300 3350 3300
Wire Wire Line
	3350 3300 3350 4900
Connection ~ 3350 4900
Wire Wire Line
	2350 4900 3650 4900
Wire Wire Line
	3500 3200 3500 3550
Wire Wire Line
	3500 3450 3850 3450
Wire Wire Line
	3850 3450 3850 4000
Connection ~ 3500 3450
Wire Wire Line
	2850 3850 2850 4000
Wire Wire Line
	2850 4300 2850 4900
Wire Wire Line
	3500 4550 4000 4550
Connection ~ 2850 3850
Wire Wire Line
	2550 4350 2550 4300
Wire Wire Line
	2550 4300 3850 4300
Wire Wire Line
	4000 4350 3850 4350
Wire Wire Line
	3850 4350 3850 4300
Wire Wire Line
	4000 4450 3650 4450
Wire Wire Line
	3650 4450 3650 4900
$EndSCHEMATC
